<svg width="20" height="24" viewBox="0 0 20 24" fill="none" xmlns="http://www.w3.org/2000/svg">
<path d="M10.0568 4.06488C10.4593 4.06488 11.4154 4.31611 11.4154 4.31611C14.0057 4.90207 15.8289 7.2574 15.8289 9.91667V17.0744L16.3585 17.5996L16.801 18.0384H3.19898L3.64148 17.5996L4.17108 17.0744V9.91667C4.17108 7.25745 5.99432 4.90207 8.5846 4.31611C8.5846 4.31611 9.60977 4.06488 9.94318 4.06488H10.0568ZM10 0C8.99989 0 8.23528 0.758221 8.23528 1.75V2.56661C4.88216 3.32511 2.3529 6.35833 2.3529 9.91667V16.3333L0 18.6667V19.8333H20V18.6667L17.6471 16.3333V9.91667C17.6471 6.35833 15.1178 3.32511 11.7647 2.56661V1.75C11.7647 0.758221 11.0001 0 10 0ZM12.3529 21H7.64705C7.64705 22.2834 8.70574 23.3333 10 23.3333C11.2943 23.3333 12.3529 22.2834 12.3529 21Z" fill="#DADADA"/>
</svg>
