<svg width="20" height="16" viewBox="0 0 20 16" fill="none" xmlns="http://www.w3.org/2000/svg">
<path d="M15.7143 5.71429C15.7143 6.74851 15.3646 7.70461 14.6652 8.58259C13.9658 9.46057 13.0115 10.1544 11.8025 10.6641C10.5934 11.1737 9.27827 11.4286 7.85714 11.4286C7.21726 11.4286 6.5625 11.369 5.89286 11.25C4.97024 11.9048 3.93601 12.381 2.79018 12.6786C2.52232 12.7455 2.20238 12.8051 1.83036 12.8571H1.79688C1.71503 12.8571 1.63876 12.8274 1.56808 12.7679C1.4974 12.7083 1.45461 12.6302 1.43973 12.5335C1.43229 12.5112 1.42857 12.487 1.42857 12.4609C1.42857 12.4349 1.43043 12.4107 1.43415 12.3884C1.43787 12.3661 1.44531 12.3438 1.45647 12.3214L1.48438 12.2656L1.52344 12.2042L1.56808 12.1484L1.6183 12.0926L1.66295 12.0424C1.70015 11.9978 1.78571 11.9048 1.91964 11.7634C2.05357 11.622 2.1503 11.5123 2.20982 11.4342C2.26935 11.356 2.35305 11.2481 2.46094 11.1105C2.56882 10.9728 2.66183 10.8296 2.73996 10.6808C2.81808 10.532 2.89435 10.3683 2.96875 10.1897C2.04613 9.65402 1.32068 8.99554 0.792411 8.21429C0.264137 7.43304 0 6.5997 0 5.71429C0 4.68006 0.349702 3.72396 1.04911 2.84598C1.74851 1.96801 2.70275 1.27418 3.91183 0.764509C5.12091 0.254836 6.43601 0 7.85714 0C9.27827 0 10.5934 0.254836 11.8025 0.764509C13.0115 1.27418 13.9658 1.96801 14.6652 2.84598C15.3646 3.72396 15.7143 4.68006 15.7143 5.71429ZM20 8.57143C20 9.46429 19.7359 10.2995 19.2076 11.077C18.6793 11.8545 17.9539 12.5112 17.0312 13.0469C17.1057 13.2254 17.1819 13.3891 17.26 13.5379C17.3382 13.6868 17.4312 13.83 17.5391 13.9676C17.6469 14.1053 17.7307 14.2132 17.7902 14.2913C17.8497 14.3694 17.9464 14.4792 18.0804 14.6205C18.2143 14.7619 18.2999 14.8549 18.3371 14.8996C18.3445 14.907 18.3594 14.9237 18.3817 14.9498C18.404 14.9758 18.4208 14.9944 18.4319 15.0056C18.4431 15.0167 18.458 15.0353 18.4766 15.0614C18.4952 15.0874 18.5082 15.1079 18.5156 15.1228L18.5435 15.1786L18.5658 15.2455L18.5714 15.3181L18.5603 15.3906C18.5379 15.4948 18.4896 15.5766 18.4152 15.6362C18.3408 15.6957 18.2589 15.7217 18.1696 15.7143C17.7976 15.6622 17.4777 15.6027 17.2098 15.5357C16.064 15.2381 15.0298 14.7619 14.1071 14.1071C13.4375 14.2262 12.7827 14.2857 12.1429 14.2857C10.1265 14.2857 8.37054 13.7946 6.875 12.8125C7.30655 12.8423 7.63393 12.8571 7.85714 12.8571C9.05506 12.8571 10.2046 12.6897 11.3058 12.3549C12.407 12.0201 13.3891 11.5402 14.2522 10.9152C15.1823 10.2307 15.8966 9.44196 16.3951 8.54911C16.8936 7.65625 17.1429 6.71131 17.1429 5.71429C17.1429 5.14137 17.0573 4.57589 16.8862 4.01786C17.846 4.54613 18.6049 5.20833 19.1629 6.00446C19.721 6.8006 20 7.65625 20 8.57143Z" fill="#DADADA" fill-opacity="0.5"/>
</svg>
